doc/example_waveform.vcd
$date
	Sat Apr 20 23:12:10 2024
$end
$version
	ModelSim Version 2020.4
$end
$timescale
	1ps
$end
$scope module axi_dma_controller_tb $end
$scope module dut $end
$var wire 1 ! clk $end
$var wire 1 " rst $end
$var wire 1 # cmd_valid $end
$var wire 1 $ cmd_ready $end
$var wire 1 % cmd_src_addr [31] $end
$var wire 1 & cmd_src_addr [30] $end
$var wire 1 ' cmd_src_addr [29] $end
$var wire 1 ( cmd_src_addr [28] $end
$var wire 1 ) cmd_src_addr [27] $end
$var wire 1 * cmd_src_addr [26] $end
$var wire 1 + cmd_src_addr [25] $end
$var wire 1 , cmd_src_addr [24] $end
$var wire 1 - cmd_src_addr [23] $end
$var wire 1 . cmd_src_addr [22] $end
$var wire 1 / cmd_src_addr [21] $end
$var wire 1 0 cmd_src_addr [20] $end
$var wire 1 1 cmd_src_addr [19] $end
$var wire 1 2 cmd_src_addr [18] $end
$var wire 1 3 cmd_src_addr [17] $end
$var wire 1 4 cmd_src_addr [16] $end
$var wire 1 5 cmd_src_addr [15] $end
$var wire 1 6 cmd_src_addr [14] $end
$var wire 1 7 cmd_src_addr [13] $end
$var wire 1 8 cmd_src_addr [12] $end
$var wire 1 9 cmd_src_addr [11] $end
$var wire 1 : cmd_src_addr [10] $end
$var wire 1 ; cmd_src_addr [9] $end
$var wire 1 < cmd_src_addr [8] $end
$var wire 1 = cmd_src_addr [7] $end
$var wire 1 > cmd_src_addr [6] $end
$var wire 1 ? cmd_src_addr [5] $end
$var wire 1 @ cmd_src_addr [4] $end
$var wire 1 A cmd_src_addr [3] $end
$var wire 1 B cmd_src_addr [2] $end
$var wire 1 C cmd_src_addr [1] $end
$var wire 1 D cmd_src_addr [0] $end
$var wire 1 E cmd_dst_addr [31] $end
$var wire 1 F cmd_dst_addr [30] $end
$var wire 1 G cmd_dst_addr [29] $end
$var wire 1 H cmd_dst_addr [28] $end
$var wire 1 I cmd_dst_addr [27] $end
$var wire 1 J cmd_dst_addr [26] $end
$var wire 1 K cmd_dst_addr [25] $end
$var wire 1 L cmd_dst_addr [24] $end
$var wire 1 M cmd_dst_addr [23] $end
$var wire 1 N cmd_dst_addr [22] $end
$var wire 1 O cmd_dst_addr [21] $end
$var wire 1 P cmd_dst_addr [20] $end
$var wire 1 Q cmd_dst_addr [19] $end
$var wire 1 R cmd_dst_addr [18] $end
$var wire 1 S cmd_dst_addr [17] $end
$var wire 1 T cmd_dst_addr [16] $end
$var wire 1 U cmd_dst_addr [15] $end
$var wire 1 V cmd_dst_addr [14] $end
$var wire 1 W cmd_dst_addr [13] $end
$var wire 1 X cmd_dst_addr [12] $end
$var wire 1 Y cmd_dst_addr [11] $end
$var wire 1 Z cmd_dst_addr [10] $end
$var wire 1 [ cmd_dst_addr [9] $end
$var wire 1 \ cmd_dst_addr [8] $end
$var wire 1 ] cmd_dst_addr [7] $end
$var wire 1 ^ cmd_dst_addr [6] $end
$var wire 1 _ cmd_dst_addr [5] $end
$var wire 1 ` cmd_dst_addr [4] $end
$var wire 1 a cmd_dst_addr [3] $end
$var wire 1 b cmd_dst_addr [2] $end
$var wire 1 c cmd_dst_addr [1] $end
$var wire 1 d cmd_dst_addr [0] $end
$var wire 1 e cmd_burst [1] $end
$var wire 1 f cmd_burst [0] $end
$var wire 1 g cmd_len [31] $end
$var wire 1 h cmd_len [30] $end
$var wire 1 i cmd_len [29] $end
$var wire 1 j cmd_len [28] $end
$var wire 1 k cmd_len [27] $end
$var wire 1 l cmd_len [26] $end
$var wire 1 m cmd_len [25] $end
$var wire 1 n cmd_len [24] $end
$var wire 1 o cmd_len [23] $end
$var wire 1 p cmd_len [22] $end
$var wire 1 q cmd_len [21] $end
$var wire 1 r cmd_len [20] $end
$var wire 1 s cmd_len [19] $end
$var wire 1 t cmd_len [18] $end
$var wire 1 u cmd_len [17] $end
$var wire 1 v cmd_len [16] $end
$var wire 1 w cmd_len [15] $end
$var wire 1 x cmd_len [14] $end
$var wire 1 y cmd_len [13] $end
$var wire 1 z cmd_len [12] $end
$var wire 1 { cmd_len [11] $end
$var wire 1 | cmd_len [10] $end
$var wire 1 } cmd_len [9] $end
$var wire 1 ~ cmd_len [8] $end
$var wire 1 !! cmd_len [7] $end
$var wire 1 "! cmd_len [6] $end
$var wire 1 #! cmd_len [5] $end
$var wire 1 $! cmd_len [4] $end
$var wire 1 %! cmd_len [3] $end
$var wire 1 &! cmd_len [2] $end
$var wire 1 '! cmd_len [1] $end
$var wire 1 (! cmd_len [0] $end
$var wire 1 )! cmd_size [2] $end
$var wire 1 *! cmd_size [1] $end
$var wire 1 +! cmd_size [0] $end
$var wire 1 ,! M_AXI_ARVALID $end
$var wire 1 -! M_AXI_ARADDR [31] $end
$var wire 1 .! M_AXI_ARADDR [30] $end
$var wire 1 /! M_AXI_ARADDR [29] $end
$var wire 1 0! M_AXI_ARADDR [28] $end
$var wire 1 1! M_AXI_ARADDR [27] $end
$var wire 1 2! M_AXI_ARADDR [26] $end
$var wire 1 3! M_AXI_ARADDR [25] $end
$var wire 1 4! M_AXI_ARADDR [24] $end
$var wire 1 5! M_AXI_ARADDR [23] $end
$var wire 1 6! M_AXI_ARADDR [22] $end
$var wire 1 7! M_AXI_ARADDR [21] $end
$var wire 1 8! M_AXI_ARADDR [20] $end
$var wire 1 9! M_AXI_ARADDR [19] $end
$var wire 1 :! M_AXI_ARADDR [18] $end
$var wire 1 ;! M_AXI_ARADDR [17] $end
$var wire 1 <! M_AXI_ARADDR [16] $end
$var wire 1 =! M_AXI_ARADDR [15] $end
$var wire 1 >! M_AXI_ARADDR [14] $end
$var wire 1 ?! M_AXI_ARADDR [13] $end
$var wire 1 @! M_AXI_ARADDR [12] $end
$var wire 1 A! M_AXI_ARADDR [11] $end
$var wire 1 B! M_AXI_ARADDR [10] $end
$var wire 1 C! M_AXI_ARADDR [9] $end
$var wire 1 D! M_AXI_ARADDR [8] $end
$var wire 1 E! M_AXI_ARADDR [7] $end
$var wire 1 F! M_AXI_ARADDR [6] $end
$var wire 1 G! M_AXI_ARADDR [5] $end
$var wire 1 H! M_AXI_ARADDR [4] $end
$var wire 1 I! M_AXI_ARADDR [3] $end
$var wire 1 J! M_AXI_ARADDR [2] $end
$var wire 1 K! M_AXI_ARADDR [1] $end
$var wire 1 L! M_AXI_ARADDR [0] $end
$var wire 1 M! M_AXI_ARLEN [7] $end
$var wire 1 N! M_AXI_ARLEN [6] $end
$var wire 1 O! M_AXI_ARLEN [5] $end
$var wire 1 P! M_AXI_ARLEN [4] $end
$var wire 1 Q! M_AXI_ARLEN [3] $end
$var wire 1 R! M_AXI_ARLEN [2] $end
$var wire 1 S! M_AXI_ARLEN [1] $end
$var wire 1 T! M_AXI_ARLEN [0] $end
$var wire 1 U! M_AXI_ARSIZE [2] $end
$var wire 1 V! M_AXI_ARSIZE [1] $end
$var wire 1 W! M_AXI_ARSIZE [0] $end
$var wire 1 X! M_AXI_ARBURST [1] $end
$var wire 1 Y! M_AXI_ARBURST [0] $end
$var wire 1 Z! M_AXI_ARREADY $end
$var wire 1 [! M_AXI_RVALID $end
$var wire 1 \! M_AXI_RDATA [31] $end
$var wire 1 ]! M_AXI_RDATA [30] $end
$var wire 1 ^! M_AXI_RDATA [29] $end
$var wire 1 _! M_AXI_RDATA [28] $end
$var wire 1 `! M_AXI_RDATA [27] $end
$var wire 1 a! M_AXI_RDATA [26] $end
$var wire 1 b! M_AXI_RDATA [25] $end
$var wire 1 c! M_AXI_RDATA [24] $end
$var wire 1 d! M_AXI_RDATA [23] $end
$var wire 1 e! M_AXI_RDATA [22] $end
$var wire 1 f! M_AXI_RDATA [21] $end
$var wire 1 g! M_AXI_RDATA [20] $end
$var wire 1 h! M_AXI_RDATA [19] $end
$var wire 1 i! M_AXI_RDATA [18] $end
$var wire 1 j! M_AXI_RDATA [17] $end
$var wire 1 k! M_AXI_RDATA [16] $end
$var wire 1 l! M_AXI_RDATA [15] $end
$var wire 1 m! M_AXI_RDATA [14] $end
$var wire 1 n! M_AXI_RDATA [13] $end
$var wire 1 o! M_AXI_RDATA [12] $end
$var wire 1 p! M_AXI_RDATA [11] $end
$var wire 1 q! M_AXI_RDATA [10] $end
$var wire 1 r! M_AXI_RDATA [9] $end
$var wire 1 s! M_AXI_RDATA [8] $end
$var wire 1 t! M_AXI_RDATA [7] $end
$var wire 1 u! M_AXI_RDATA [6] $end
$var wire 1 v! M_AXI_RDATA [5] $end
$var wire 1 w! M_AXI_RDATA [4] $end
$var wire 1 x! M_AXI_RDATA [3] $end
$var wire 1 y! M_AXI_RDATA [2] $end
$var wire 1 z! M_AXI_RDATA [1] $end
$var wire 1 {! M_AXI_RDATA [0] $end
$var wire 1 |! M_AXI_RRESP [1] $end
$var wire 1 }! M_AXI_RRESP [0] $end
$var wire 1 ~! M_AXI_RLAST $end
$var wire 1 !" M_AXI_RREADY $end
$var wire 1 "" M_AXI_AWVALID $end
$var wire 1 #" M_AXI_AWADDR [31] $end
$var wire 1 $" M_AXI_AWADDR [30] $end
$var wire 1 %" M_AXI_AWADDR [29] $end
$var wire 1 &" M_AXI_AWADDR [28] $end
$var wire 1 '" M_AXI_AWADDR [27] $end
$var wire 1 (" M_AXI_AWADDR [26] $end
$var wire 1 )" M_AXI_AWADDR [25] $end
$var wire 1 *" M_AXI_AWADDR [24] $end
$var wire 1 +" M_AXI_AWADDR [23] $end
$var wire 1 ," M_AXI_AWADDR [22] $end
$var wire 1 -" M_AXI_AWADDR [21] $end
$var wire 1 ." M_AXI_AWADDR [20] $end
$var wire 1 /" M_AXI_AWADDR [19] $end
$var wire 1 0" M_AXI_AWADDR [18] $end
$var wire 1 1" M_AXI_AWADDR [17] $end
$var wire 1 2" M_AXI_AWADDR [16] $end
$var wire 1 3" M_AXI_AWADDR [15] $end
$var wire 1 4" M_AXI_AWADDR [14] $end
$var wire 1 5" M_AXI_AWADDR [13] $end
$var wire 1 6" M_AXI_AWADDR [12] $end
$var wire 1 7" M_AXI_AWADDR [11] $end
$var wire 1 8" M_AXI_AWADDR [10] $end
$var wire 1 9" M_AXI_AWADDR [9] $end
$var wire 1 :" M_AXI_AWADDR [8] $end
$var wire 1 ;" M_AXI_AWADDR [7] $end
$var wire 1 <" M_AXI_AWADDR [6] $end
$var wire 1 =" M_AXI_AWADDR [5] $end
$var wire 1 >" M_AXI_AWADDR [4] $end
$var wire 1 ?" M_AXI_AWADDR [3] $end
$var wire 1 @" M_AXI_AWADDR [2] $end
$var wire 1 A" M_AXI_AWADDR [1] $end
$var wire 1 B" M_AXI_AWADDR [0] $end
$var wire 1 C" M_AXI_AWLEN [7] $end
$var wire 1 D" M_AXI_AWLEN [6] $end
$var wire 1 E" M_AXI_AWLEN [5] $end
$var wire 1 F" M_AXI_AWLEN [4] $end
$var wire 1 G" M_AXI_AWLEN [3] $end
$var wire 1 H" M_AXI_AWLEN [2] $end
$var wire 1 I" M_AXI_AWLEN [1] $end
$var wire 1 J" M_AXI_AWLEN [0] $end
$var wire 1 K" M_AXI_AWSIZE [2] $end
$var wire 1 L" M_AXI_AWSIZE [1] $end
$var wire 1 M" M_AXI_AWSIZE [0] $end
$var wire 1 N" M_AXI_AWBURST [1] $end
$var wire 1 O" M_AXI_AWBURST [0] $end
$var wire 1 P" M_AXI_AWREADY $end
$var wire 1 Q" M_AXI_WVALID $end
$var wire 1 R" M_AXI_WDATA [31] $end
$var wire 1 S" M_AXI_WDATA [30] $end
$var wire 1 T" M_AXI_WDATA [29] $end
$var wire 1 U" M_AXI_WDATA [28] $end
$var wire 1 V" M_AXI_WDATA [27] $end
$var wire 1 W" M_AXI_WDATA [26] $end
$var wire 1 X" M_AXI_WDATA [25] $end
$var wire 1 Y" M_AXI_WDATA [24] $end
$var wire 1 Z" M_AXI_WDATA [23] $end
$var wire 1 [" M_AXI_WDATA [22] $end
$var wire 1 \" M_AXI_WDATA [21] $end
$var wire 1 ]" M_AXI_WDATA [20] $end
$var wire 1 ^" M_AXI_WDATA [19] $end
$var wire 1 _" M_AXI_WDATA [18] $end
$var wire 1 `" M_AXI_WDATA [17] $end
$var wire 1 a" M_AXI_WDATA [16] $end
$var wire 1 b" M_AXI_WDATA [15] $end
$var wire 1 c" M_AXI_WDATA [14] $end
$var wire 1 d" M_AXI_WDATA [13] $end
$var wire 1 e" M_AXI_WDATA [12] $end
$var wire 1 f" M_AXI_WDATA [11] $end
$var wire 1 g" M_AXI_WDATA [10] $end
$var wire 1 h" M_AXI_WDATA [9] $end
$var wire 1 i" M_AXI_WDATA [8] $end
$var wire 1 j" M_AXI_WDATA [7] $end
$var wire 1 k" M_AXI_WDATA [6] $end
$var wire 1 l" M_AXI_WDATA [5] $end
$var wire 1 m" M_AXI_WDATA [4] $end
$var wire 1 n" M_AXI_WDATA [3] $end
$var wire 1 o" M_AXI_WDATA [2] $end
$var wire 1 p" M_AXI_WDATA [1] $end
$var wire 1 q" M_AXI_WDATA [0] $end
$var wire 1 r" M_AXI_WSTRB [3] $end
$var wire 1 s" M_AXI_WSTRB [2] $end
$var wire 1 t" M_AXI_WSTRB [1] $end
$var wire 1 u" M_AXI_WSTRB [0] $end
$var wire 1 v" M_AXI_WLAST $end
$var wire 1 w" M_AXI_WREADY $end
$var wire 1 x" M_AXI_BVALID $end
$var wire 1 y" M_AXI_BRESP [1] $end
$var wire 1 z" M_AXI_BRESP [0] $end
$var wire 1 {" M_AXI_BREADY $end
$upscope $end
$upscope $end
$enddefinitions $end
#0
0!
1"
0#
x%
x&
x'
x(
x)
x*
x+
x,
x-
x.
x/
x0
x1
x2
x3
x4
x5
x6
x7
x8
x9
x:
x;
x<
x=
x>
x?
x@
xA
xB
xC
xD
xE
xF
xG
xH
xI
xJ
xK
xL
xM
xN
xO
xP
xQ
xR
xS
xT
xU
xV
xW
xX
xY
xZ
x[
x\
x]
x^
x_
x`
xa
xb
xc
xd
xe
xf
xg
xh
xi
xj
xk
xl
xm
xn
xo
xp
xq
xr
xs
xt
xu
xv
xw
xx
xy
xz
x{
x|
x}
x~
x!!
x"!
x#!
x$!
x%!
x&!
x'!
x(!
x)!
x*!
x+!
0$
0,!
0-!
0.!
0/!
00!
01!
02!
03!
04!
05!
06!
07!
08!
09!
0:!
0;!
0<!
0=!
0>!
0?!
0@!
0A!
0B!
0C!
0D!
0E!
0F!
0G!
0H!
0I!
0J!
0K!
0L!
0M!
0N!
0O!
0P!
0Q!
0R!
0S!
0T!
0U!
0V!
0W!
xX!
xY!
0Z!
0[!
x\!
x]!
x^!
x_!
x`!
xa!
xb!
xc!
xd!
xe!
xf!
xg!
xh!
xi!
xj!
xk!
xl!
xm!
xn!
xo!
xp!
xq!
xr!
xs!
xt!
xu!
xv!
xw!
xx!
xy!
xz!
x{!
x|!
x}!
x~!
0!"
0""
x#"
x$"
x%"
x&"
x'"
x("
x)"
x*"
x+"
x,"
x-"
x."
x/"
x0"
x1"
x2"
x3"
x4"
x5"
x6"
x7"
x8"
x9"
x:"
x;"
x<"
x="
x>"
x?"
x@"
xA"
xB"
xC"
xD"
xE"
xF"
xG"
xH"
xI"
xJ"
0K"
0L"
0M"
xN"
xO"
0P"
0Q"
xR"
xS"
xT"
xU"
xV"
xW"
xX"
xY"
xZ"
x["
x\"
x]"
x^"
x_"
x`"
xa"
xb"
xc"
xd"
xe"
xf"
xg"
xh"
xi"
xj"
xk"
xl"
xm"
xn"
xo"
xp"
xq"
xr"
xs"
xt"
xu"
0v"
1w"
0x"
xy"
xz"
1{"
1{"
0!
1"
0#
0P"
1w"
0x"
0Z!
0[!
0K"
0L"
0M"
0U!
0V!
0W!
0$
0,!
0M!
0N!
0O!
0P!
0Q!
0R!
0S!
0T!
0-!
0.!
0/!
00!
01!
02!
03!
04!
05!
06!
07!
08!
09!
0:!
0;!
0<!
0=!
0>!
0?!
0@!
0A!
0B!
0C!
0D!
0E!
0F!
0G!
0H!
0I!
0J!
0K!
0L!
0""
0Q"
0v"
0!"
#100
1!
#200
0!
#300
1!
#400
0!
#500
1!
#600
0!
#700
1!
#800
0!
#900
1!
#1000
0!
#1100
1!
#1200
0!
#1300
1!
#1400
0!
#1500
1!
#1600
0!
#1700
1!
#1800
0!
#1900
1!
#2000
0!
#2100
1!
#2200
0!
#2300
1!
#2400
0!
#2500
1!
#2600
0!
#2700
1!
#2800
0!
#2900
1!
#3000
0!
#3100
1!
#3200
0!
#3300
1!
#3400
0!
#3500
1!
#3600
0!
#3700
1!
#3800
0!
#3900
1!
#4000
0!
#4100
1!
#4200
0!
#4300
1!
#4400
0!
#4500
1!
#4600
0!
#4700
1!
#4800
0!
#4900
1!
#5000
0!
#5100
1!
#5200
0!
#5300
1!
#5400
0!
#5500
1!
#5600
0!
#5700
1!
#5800
0!
#5900
1!
#6000
0!
#6100
1!
#6200
0!
#6300
1!
#6400
0!
#6500
1!
#6600
0!
#6700
1!
#6800
0!
#6900
1!
#7000
0!
#7100
1!
#7200
0!
#7300
1!
#7400
0!
#7500
1!
#7600
0!
#7700
1!
#7800
0!
#7900
1!
#8000
0!
#8100
1!
#8200
0!
#8300
1!
#8400
0!
#8500
1!
#8600
0!
#8700
1!
#8800
0!
#8900
1!
#9000
0!
#9100
1!
#9200
0!
#9300
1!
#9400
0!
#9500
1!
#9600
0!
#9700
1!
#9800
0!
#9900
1!
#10000
0!
#10100
1!
#10200
0!
#10300
1!
#10400
0!
#10500
1!
#10600
0!
#10700
1!
#10800
0!
#10900
1!
#11000
0!
#11100
1!
#11200
0!
#11300
1!
#11400
0!
#11500
1!
#11600
0!
#11700
1!
#11800
0!
#11900
1!
#12000
0!
#12100
1!
#12200
0!
#12300
1!
#12400
0!
#12500
1!
#12600
0!
#12700
1!
#12800
0!
#12900
1!
#13000
0!
#13100
1!
#13200
0!
#13300
1!
#13400
0!
#13500
1!
#13600
0!
#13700
1!
#13800
0!
#13900
1!
#14000
0!
#14100
1!
#14200
0!
#14300
1!
#14400
0!
#14500
1!
#14600
0!
#14700
1!
#14800
0!
#14900
1!
#15000
0!
#15100
1!
#15200
0!
#15300
1!
#15400
0!
#15500
1!
#15600
0!
#15700
1!
#15800
0!
#15900
1!
#16000
0!
#16100
1!
#16200
0!
#16300
1!
#16400
0!
#16500
1!
#16600
0!
#16700
1!
#16800
0!
#16900
1!
#17000
0!
#17100
1!
#17200
0!
#17300
1!
#17400
0!
#17500
1!
#17600
0!
#17700
1!
#17800
0!
#17900
1!
#18000
0!
#18100
1!
#18200
0!
#18300
1!
#18400
0!
#18500
1!
#18600
0!
#18700
1!
#18800
0!
#18900
1!
#19000
0!
#19100
1!
#19200
0!
#19300
1!
#19400
0!
#19500
1!
#19600
0!
#19700
1!
#19800
0!
#19900
1!
#20000
0!
#20100
1!
0"
#20200
0!
#20300
1!
0)!
1*!
0+!
0g
0h
0i
0j
0k
0l
0m
0n
0o
0p
0q
0r
0s
0t
0u
0v
0w
0x
0y
0z
0{
0|
0}
0~
0!!
1"!
1#!
1$!
1%!
1&!
0'!
0(!
0e
1f
1E
1F
0G
1H
0I
1J
0K
1L
1M
0N
0O
0P
1Q
1R
0S
0T
1U
0V
1W
0X
1Y
0Z
1[
1\
0]
1^
0_
1`
1a
0b
0c
0d
0%
1&
0'
0(
0)
0*
1+
0,
1-
0.
1/
10
11
12
03
04
15
06
07
18
09
0:
0;
0<
1=
0>
0?
1@
1A
1B
0C
0D
1$
1#
1!"
#20400
0!
#20500
1!
1~
0"!
0H
0L
0M
1N
1P
0Q
0R
1S
0U
0W
1X
0Y
1Z
0\
1]
0&
1'
1(
1*
0+
0/
00
01
02
14
05
19
1;
1>
0A
0$
1V!
1L"
0X!
1Y!
0N"
1O"
#20600
0!
#20700
1!
1,!
1Q!
1.!
13!
15!
17!
18!
19!
1:!
1=!
1@!
1E!
1H!
1I!
1J!
#20800
0!
#20900
1!
1Z!
#21000
0!
#21100
1!
0,!
0Z!
1[!
0|!
0}!
0\!
0]!
0^!
0_!
0`!
0a!
1b!
1c!
0d!
0e!
0f!
0g!
0h!
0i!
1j!
0k!
0l!
0m!
0n!
0o!
0p!
0q!
0r!
1s!
0t!
0u!
0v!
0w!
0x!
0y!
0z!
0{!
0~!
#21200
0!
#21300
1!
1,!
1a!
1i!
1q!
1y!
1R!
1S!
1T!
1F!
0H!
0I!
0J!
#21400
0!
#21500
1!
1Z!
1`!
0a!
1h!
0i!
1p!
0q!
1x!
0y!
0R"
0S"
0T"
0U"
0V"
0W"
1X"
1Y"
0Z"
0["
0\"
0]"
0^"
0_"
1`"
0a"
0b"
0c"
0d"
0e"
0f"
0g"
0h"
1i"
0j"
0k"
0l"
0m"
0n"
0o"
0p"
0q"
#21600
0!
#21700
1!
0,!
1a!
1i!
1q!
1y!
0Z!
#21800
0!
#21900
1!
1,!
1_!
0`!
0a!
1g!
0h!
0i!
1o!
0p!
0q!
1w!
0x!
0y!
0Q!
0S!
1D!
0E!
0F!
#22000
0!
#22100
1!
1a!
1i!
1q!
1y!
1Z!
#22200
0!
#22300
1!
0,!
0Z!
1`!
0a!
1h!
0i!
1p!
0q!
1x!
0y!
#22400
0!
#22500
1!
1a!
1i!
1q!
1y!
#22600
0!
#22700
1!
1^!
0_!
0`!
0a!
1f!
0g!
0h!
0i!
1n!
0o!
0p!
0q!
1v!
0w!
0x!
0y!
1~!
#22800
0!
#22900
1!
0^!
0f!
0n!
0v!
0~!
#23000
0!
#23100
1!
1a!
1i!
1q!
1y!
#23200
0!
#23300
1!
1`!
0a!
1h!
0i!
1p!
0q!
1x!
0y!
#23400
0!
#23500
1!
1a!
1i!
1q!
1y!
#23600
0!
#23700
1!
1_!
0`!
0a!
1g!
0h!
0i!
1o!
0p!
0q!
1w!
0x!
0y!
#23800
0!
#23900
1!
1a!
1i!
1q!
1y!
#24000
0!
#24100
1!
1`!
0a!
1h!
0i!
1p!
0q!
1x!
0y!
#24200
0!
#24300
1!
1a!
1i!
1q!
1y!
#24400
0!
#24500
1!
1^!
0_!
0`!
0a!
1f!
0g!
0h!
0i!
1n!
0o!
0p!
0q!
1v!
0w!
0x!
0y!
#24600
0!
#24700
1!
1""
1Q"
1a!
1i!
1q!
1y!
1r"
1s"
1t"
1u"
0C"
0D"
0E"
0F"
1G"
0H"
0I"
1J"
1#"
1$"
0%"
1&"
0'"
1("
0)"
1*"
1+"
0,"
0-"
0."
1/"
10"
01"
02"
13"
04"
15"
06"
17"
08"
19"
1:"
0;"
1<"
0="
1>"
1?"
0@"
0A"
0B"
#24800
0!
#24900
1!
1`!
0a!
1h!
0i!
1p!
0q!
1x!
0y!
1P"
1W"
1_"
1g"
1o"
#25000
0!
#25100
1!
0""
0P"
1a!
1i!
1q!
1y!
1V"
0W"
1^"
0_"
1f"
0g"
1n"
0o"
#25200
0!
#25300
1!
1_!
0`!
0a!
1g!
0h!
0i!
1o!
0p!
0q!
1w!
0x!
0y!
1W"
1_"
1g"
1o"
#25400
0!
#25500
1!
1a!
1i!
1q!
1y!
1U"
0V"
0W"
1]"
0^"
0_"
1e"
0f"
0g"
1m"
0n"
0o"
#25600
0!
#25700
1!
1`!
0a!
1h!
0i!
1p!
0q!
1x!
0y!
1W"
1_"
1g"
1o"
#25800
0!
#25900
1!
1a!
1i!
1q!
1y!
1~!
1V"
0W"
1^"
0_"
1f"
0g"
1n"
0o"
#26000
0!
#26100
1!
0^!
0_!
0`!
0a!
0f!
0g!
0h!
0i!
0n!
0o!
0p!
0q!
0v!
0w!
0x!
0y!
0~!
1W"
1_"
1g"
1o"
#26200
0!
#26300
1!
1a!
1i!
1q!
1y!
1T"
0U"
0V"
0W"
1\"
0]"
0^"
0_"
1d"
0e"
0f"
0g"
1l"
0m"
0n"
0o"
#26400
0!
#26500
1!
1v"
1`!
0a!
1h!
0i!
1p!
0q!
1x!
0y!
0T"
0\"
0d"
0l"
#26600
0!
#26700
1!
1""
0v"
1a!
1i!
1q!
1y!
1H"
1I"
1;"
0<"
0>"
0?"
1W"
1_"
1g"
1o"
#26701
1x"
0y"
0z"
#26800
0!
#26900
1!
0x"
1_!
0`!
0a!
1g!
0h!
0i!
1o!
0p!
0q!
1w!
0x!
0y!
1P"
1V"
0W"
1^"
0_"
1f"
0g"
1n"
0o"
#27000
0!
#27100
1!
0""
0P"
1a!
1i!
1q!
1y!
1~!
1W"
1_"
1g"
1o"
#27200
0!
#27300
1!
0[!
1U"
0V"
0W"
1]"
0^"
0_"
1e"
0f"
0g"
1m"
0n"
0o"
#27400
0!
#27500
1!
1W"
1_"
1g"
1o"
#27600
0!
#27700
1!
1V"
0W"
1^"
0_"
1f"
0g"
1n"
0o"
#27800
0!
#27900
1!
1W"
1_"
1g"
1o"
#28000
0!
#28100
1!
1T"
0U"
0V"
0W"
1\"
0]"
0^"
0_"
1d"
0e"
0f"
0g"
1l"
0m"
0n"
0o"
#28200
0!
#28300
1!
1W"
1_"
1g"
1o"
#28400
0!
#28500
1!
1V"
0W"
1^"
0_"
1f"
0g"
1n"
0o"
#28600
0!
#28700
1!
1W"
1_"
1g"
1o"
#28800
0!
#28900
1!
1U"
0V"
0W"
1]"
0^"
0_"
1e"
0f"
0g"
1m"
0n"
0o"
#29000
0!
#29100
1!
1W"
1_"
1g"
1o"
#29200
0!
#29300
1!
1V"
0W"
1^"
0_"
1f"
0g"
1n"
0o"
#29400
0!
#29500
1!
1W"
1_"
1g"
1o"
#29600
0!
#29700
1!
1v"
0T"
0U"
0V"
0W"
0\"
0]"
0^"
0_"
0d"
0e"
0f"
0g"
0l"
0m"
0n"
0o"
#29800
0!
#29900
1!
1""
0G"
0I"
0J"
1<"
0v"
1W"
1_"
1g"
1o"
#29901
1x"
#30000
0!
#30100
1!
0x"
1P"
1V"
0W"
1^"
0_"
1f"
0g"
1n"
0o"
#30200
0!
#30300
1!
0""
0P"
1W"
1_"
1g"
1o"
#30400
0!
#30500
1!
1$
1U"
0V"
0W"
1]"
0^"
0_"
1e"
0f"
0g"
1m"
0n"
0o"
#30600
0!
#30700
1!
0~
1!!
1"!
0$!
0&!
0E
1H
1I
1K
1Q
1R
0S
1U
0Z
1\
0`
0a
1b
1)
0-
10
12
04
17
08
09
0;
1<
1?
0@
1A
0B
0$
1v"
1W"
1_"
1g"
1o"
#30800
0!
#30900
1!
1,!
1Q!
0R!
1S!
0T!
0.!
1/!
10!
12!
03!
07!
08!
09!
0:!
1<!
0=!
1A!
1C!
0D!
1E!
1F!
1H!
1J!
0Q"
0v"
xR"
xS"
xT"
xU"
xV"
xW"
xX"
xY"
xZ"
x["
x\"
x]"
x^"
x_"
x`"
xa"
xb"
xc"
xd"
xe"
xf"
xg"
xh"
xi"
xj"
xk"
xl"
xm"
xn"
xo"
xp"
xq"
#30901
1x"
#31000
0!
#31100
1!
0x"
1Z!
#31200
0!
#31300
1!
0,!
0Z!
1[!
0_!
0a!
0g!
0i!
0o!
0q!
0w!
0y!
0~!
#31400
0!
#31500
1!
1,!
1a!
1i!
1q!
1y!
1R!
1T!
1D!
0E!
0F!
0H!
0J!
#31600
0!
#31700
1!
1Z!
1`!
0a!
1h!
0i!
1p!
0q!
1x!
0y!
0R"
0S"
0T"
0U"
0V"
0W"
1X"
1Y"
0Z"
0["
0\"
0]"
0^"
0_"
1`"
0a"
0b"
0c"
0d"
0e"
0f"
0g"
0h"
1i"
0j"
0k"
0l"
0m"
0n"
0o"
0p"
0q"
#31800
0!
#31900
1!
0,!
1a!
1i!
1q!
1y!
0Z!
#32000
0!
#32100
1!
1,!
1_!
0`!
0a!
1g!
0h!
0i!
1o!
0p!
0q!
1w!
0x!
0y!
1F!
#32200
0!
#32300
1!
1a!
1i!
1q!
1y!
1Z!
#32400
0!
#32500
1!
0,!
0Z!
1`!
0a!
1h!
0i!
1p!
0q!
1x!
0y!
#32600
0!
#32700
1!
1,!
1a!
1i!
1q!
1y!
1E!
0F!
#32800
0!
#32900
1!
1Z!
1^!
0_!
0`!
0a!
1f!
0g!
0h!
0i!
1n!
0o!
0p!
0q!
1v!
0w!
0x!
0y!
#33000
0!
#33100
1!
0,!
1a!
1i!
1q!
1y!
0Z!
#33200
0!
#33300
1!
1,!
1`!
0a!
1h!
0i!
1p!
0q!
1x!
0y!
1F!
1~!
#33400
0!
#33500
1!
0^!
0`!
0f!
0h!
0n!
0p!
0v!
0x!
0~!
1Z!
#33600
0!
#33700
1!
0,!
0Z!
1a!
1i!
1q!
1y!
#33800
0!
#33900
1!
1,!
1`!
0a!
1h!
0i!
1p!
0q!
1x!
0y!
0Q!
0R!
1B!
0C!
0D!
0E!
0F!
#34000
0!
#34100
1!
1Z!
1a!
1i!
1q!
1y!
#34200
0!
#34300
1!
0,!
1_!
0`!
0a!
1g!
0h!
0i!
1o!
0p!
0q!
1w!
0x!
0y!
0Z!
#34400
0!
#34500
1!
1a!
1i!
1q!
1y!
#34600
0!
#34700
1!
1`!
0a!
1h!
0i!
1p!
0q!
1x!
0y!
#34800
0!
#34900
1!
1""
1Q"
1a!
1i!
1q!
1y!
1G"
0H"
1J"
0&"
0*"
0+"
1,"
1."
0/"
00"
11"
03"
05"
16"
07"
18"
0:"
1>"
1?"
#35000
0!
#35100
1!
1^!
0_!
0`!
0a!
1f!
0g!
0h!
0i!
1n!
0o!
0p!
0q!
1v!
0w!
0x!
0y!
1P"
1W"
1_"
1g"
1o"
#35200
0!
#35300
1!
0""
0P"
1a!
1i!
1q!
1y!
1V"
0W"
1^"
0_"
1f"
0g"
1n"
0o"
#35400
0!
#35500
1!
1`!
0a!
1h!
0i!
1p!
0q!
1x!
0y!
1W"
1_"
1g"
1o"
#35600
0!
#35700
1!
1a!
1i!
1q!
1y!
1U"
0V"
0W"
1]"
0^"
0_"
1e"
0f"
0g"
1m"
0n"
0o"
#35800
0!
